<?xml version="1.0" encoding="utf-8"?>
<!-- Generator: Adobe Illustrator 24.0.3, SVG Export Plug-In . SVG Version: 6.00 Build 0)  -->
<svg version="1.1" id="Capa_1" xmlns="http://www.w3.org/2000/svg" xmlns:xlink="http://www.w3.org/1999/xlink" x="0px" y="0px"
	 viewBox="0 0 920 360" style="enable-background:new 0 0 920 360;" xml:space="preserve">
<style type="text/css">
	.st0{fill:#D6D6D5;}
	.st1{clip-path:url(#SVGID_2_);}
</style>
<path class="st0" d="M150.5,12.3h6.1v2h-6.1V12.3z"/>
<path class="st0" d="M152.6,10.3h2v6.1h-2V10.3z M12.8,61.5h6.1v2h-6.1L12.8,61.5z"/>
<path class="st0" d="M14.8,59.4h2v6.1h-2V59.4z M119.9,61.5h6.1v2h-6.1V61.5z"/>
<path class="st0" d="M122,59.4h2v6.1h-2V59.4z M123,34.4c-1.4,0-2.5-1.1-2.5-2.5c0-1.4,1.1-2.5,2.5-2.5c1.4,0,2.5,1.1,2.5,2.5l0,0
	C125.5,33.3,124.4,34.4,123,34.4z M123,31.3c-0.3,0-0.5,0.2-0.5,0.5s0.2,0.5,0.5,0.5c0.3,0,0.5-0.2,0.5-0.5l0,0
	C123.5,31.6,123.3,31.3,123,31.3z M231.5,34.4c-1.4,0-2.5-1.1-2.5-2.5c0-1.4,1.1-2.5,2.5-2.5c1.4,0,2.5,1.1,2.5,2.5l0,0
	C234.1,33.3,232.9,34.4,231.5,34.4z M231.5,31.3c-0.3,0-0.5,0.2-0.5,0.5s0.2,0.5,0.5,0.5s0.5-0.2,0.5-0.5l0,0
	C232.1,31.6,231.8,31.3,231.5,31.3z M31.1,22.2c-1.4,0-2.5-1.1-2.5-2.5s1.1-2.5,2.5-2.5c1.4,0,2.5,1.1,2.5,2.5S32.5,22.2,31.1,22.2
	C31.1,22.2,31.1,22.2,31.1,22.2z M31.1,19.1c-0.3,0-0.5,0.2-0.5,0.5s0.2,0.5,0.5,0.5c0.3,0,0.5-0.2,0.5-0.5S31.4,19.1,31.1,19.1
	C31.1,19.1,31.1,19.1,31.1,19.1z M92.3,14.9c-1.4,0-2.5-1.1-2.5-2.5s1.1-2.5,2.5-2.5c1.4,0,2.5,1.1,2.5,2.5c0,0,0,0,0,0
	C94.9,13.8,93.7,14.9,92.3,14.9z M92.3,11.9c-0.3,0-0.5,0.2-0.5,0.5s0.2,0.5,0.5,0.5c0.3,0,0.5-0.2,0.5-0.5c0,0,0,0,0,0
	C92.9,12.1,92.6,11.9,92.3,11.9z M93.3,308.4H30.1V30.9h63.2V308.4z M32.1,306.4h59.2V32.9H32.1V306.4z"/>
<path class="st0" d="M31.1,61.5h61.2v2H31.1V61.5z M31.1,46.2h61.2v2H31.1V46.2z M31.1,76.8h61.2v2H31.1V76.8z M256.2,30.9h39.7v2
	h-39.7V30.9z M256.2,15.6h39.7v2h-39.7V15.6z M256.2,46.2h39.7v2h-39.7V46.2z M31.1,92.1h61.2v2H31.1V92.1z M31.1,107.4h61.2v2H31.1
	V107.4z M31.1,122.7h61.2v2H31.1V122.7z M31.1,138h61.2v2H31.1V138z M31.1,153.3h61.2v2H31.1V153.3z"/>
<path class="st0" d="M0.5,92.1h30.6v2H0.5V92.1z M48.4,1.2h2v30.6h-2V1.2z M73.5,1.2h2v30.6h-2V1.2z M215.8,308.4H91.3v-201h124.5
	V308.4z M93.4,306.4h120.5v-197H93.3L93.4,306.4L93.4,306.4z"/>
<path class="st0" d="M215.8,308.4h-63.2V30.9h63.2L215.8,308.4L215.8,308.4z M154.6,306.4h59.2V32.9h-59.2L154.6,306.4L154.6,306.4z
	"/>
<path class="st0" d="M200.7,140h-93.8v-17.2h93.8V140z M108.9,138h89.8v-13.2h-89.8V138z M200.7,170.6h-93.8v-17.2h93.8V170.6z
	 M108.9,168.6h89.8v-13.2h-89.8V168.6z M200.7,201.2h-93.8V184h93.8V201.2L200.7,201.2z M108.9,199.2h89.8V186h-89.8V199.2
	L108.9,199.2z M200.7,231.8h-93.8v-17.2h93.8V231.8z M108.9,229.8h89.8v-13.2h-89.8V229.8z M200.7,262.4h-93.8v-17.2h93.8V262.4z
	 M108.9,260.4h89.8v-13.2h-89.8V260.4z M62.5,247.2H-0.7v-1c0-17.5,14.2-31.6,31.6-31.6s31.6,14.2,31.6,31.6l0,0
	C62.5,246.2,62.5,247.2,62.5,247.2z M1.3,245.2h59.2c-0.3-16.4-13.8-29.4-30.1-29.1C14.5,216.4,1.6,229.2,1.3,245.2L1.3,245.2z
	 M277,155.3h-63.2v-1c0-17.5,14.2-31.6,31.6-31.6s31.6,14.2,31.6,31.6L277,155.3L277,155.3z M215.8,153.3H275
	c-0.7-16.3-14.5-29-30.8-28.4C228.8,125.6,216.5,137.9,215.8,153.3L215.8,153.3z"/>
<path class="st0" d="M338.3,155.3H275v-1c0-17.5,14.2-31.6,31.6-31.6c17.5,0,31.6,14.2,31.6,31.6L338.3,155.3L338.3,155.3z
	 M277.1,153.3h59.2c-0.4-16.3-14-29.3-30.4-28.8C290.1,124.9,277.5,137.6,277.1,153.3z"/>
<path class="st0" d="M399.5,155.3h-63.2v-1c0-17.5,14.2-31.6,31.6-31.6c17.5,0,31.6,14.2,31.6,31.6V155.3z M338.3,153.3h59.2
	c-0.4-16.3-14-29.3-30.4-28.8C351.4,124.9,338.7,137.6,338.3,153.3z"/>
<path class="st0" d="M460.7,155.3h-63.2v-1c0-17.5,14.2-31.6,31.6-31.6c17.5,0,31.6,14.2,31.6,31.6V155.3z M399.5,153.3h59.2
	c-0.4-16.3-14-29.3-30.4-28.8C412.6,124.9,399.9,137.6,399.5,153.3z M60.5,246.2h2v61.2h-2V246.2z M30.9,214.6h80.2v2H30.9V214.6z"
	/>
<path class="st0" d="M61.5,245.2h49.6v2H61.5V245.2z M31.1,168.6h61.2v2H31.1V168.6z M31.1,183.9h61.2v2H31.1V183.9z M459.7,15.6
	H521v2h-61.2V15.6z M459.7,0.2H521v2h-61.2V0.2z M459.7,30.9H521v2h-61.2V30.9z M459.7,46.2H521v2h-61.2V46.2z M459.7,61.5H521v2
	h-61.2V61.5z M459.7,76.8H521v2h-61.2V76.8z M459.7,92.1H521v2h-61.2V92.1z M459.7,107.4H521v2h-61.2V107.4z M459.7,122.7H521v2
	h-61.2V122.7z M448.2,94.1h-8.9V61.5h8.9V94.1z M441.3,92.1h4.9V63.5h-4.9V92.1z M418.7,94.1h-8.9V61.5h8.9V94.1z M411.8,92.1h4.9
	V63.5h-4.9V92.1z M433.6,94.1h-8.9V61.5h8.9V94.1z M426.6,92.1h4.9V63.5h-4.9V92.1z M448.2,48.2h-8.9V15.6h8.9V48.2z M441.3,46.2
	h4.9V17.5h-4.9V46.2z M418.7,48.2h-8.9V15.6h8.9V48.2z M411.8,46.2h4.9V17.5h-4.9V46.2z M433.6,48.2h-8.9V15.6h8.9V48.2z
	 M426.6,46.2h4.9V17.5h-4.9V46.2z"/>
<path class="st0" d="M460.7,151.4h-2v-42H214.8v-2h245.9L460.7,151.4"/>
<path class="st0" d="M277,109.4h-63.2V71.7H277V109.4z M215.8,107.4H275V73.7h-59.2L215.8,107.4L215.8,107.4z M338.3,109.4h-32.6
	V71.7h32.6L338.3,109.4L338.3,109.4z M307.7,107.4h28.6V73.7h-28.6L307.7,107.4L307.7,107.4z"/>
<path class="st0" d="M307.7,109.4h-63.2V0.2h63.2V109.4z M246.4,107.4h59.2V2.2h-59.2V107.4z M522,155.3h-63.3V0.2H522V155.3z
	 M460.8,153.3H520V2.2h-59.3L460.8,153.3L460.8,153.3z M399.5,155.3h-63.2V0.2h63.2V155.3z M338.3,153.3h59.2V2.2h-59.2V153.3z"/>
<path class="st0" d="M366.9,84.4h2V96h-2V84.4z M366.9,64.2h2v11.6h-2V64.2z M357.4,84.4h2V96h-2V84.4z M357.4,64.2h2v11.6h-2V64.2z
	 M347.8,84.4h2V96h-2V84.4z M347.8,64.2h2v11.6h-2V64.2z M376.4,84.4h2V96h-2V84.4z M376.4,64.2h2v11.6h-2V64.2z M386,84.4h2V96h-2
	V84.4z M386,64.2h2v11.6h-2V64.2z M366.9,96.8h2v11.6h-2V96.8z M357.4,96.8h2v11.6h-2V96.8z M347.8,96.8h2v11.6h-2V96.8z
	 M376.4,96.8h2v11.6h-2V96.8z M386,96.8h2v11.6h-2V96.8z"/>
<path class="st0" d="M366.9,52.9h2v11.6h-2V52.9z M366.9,32.7h2v11.6h-2V32.7z M357.4,52.9h2v11.6h-2V52.9z M357.4,32.7h2v11.6h-2
	V32.7z M347.8,52.9h2v11.6h-2V52.9z M347.8,32.7h2v11.6h-2V32.7z M376.4,52.9h2v11.6h-2V52.9z M376.4,32.7h2v11.6h-2V32.7z
	 M386,52.9h2v11.6h-2V52.9z M386,32.7h2v11.6h-2V32.7z"/>
<path class="st0" d="M366.9,21.5h2v11.6h-2V21.5z M366.9,1.2h2v11.6h-2V1.2z M357.4,21.5h2v11.6h-2V21.5z M357.4,1.2h2v11.6h-2V1.2z
	 M347.8,21.5h2v11.6h-2V21.5z M347.8,1.2h2v11.6h-2V1.2z M376.4,21.5h2v11.6h-2V21.5z M376.4,1.2h2v11.6h-2V1.2z M386,21.5h2v11.6
	h-2V21.5z M386,1.2h2v11.6h-2V1.2z M582.2,61.5h183.7v2H582.2V61.5z M643.4,122.7h122.5v2H643.4V122.7z M520,123.7h2v183.6h-2V123.7
	z"/>
<path class="st0" d="M642.4,123.7h2v183.6h-2V123.7z M734.3,123.7h2v183.6h-2V123.7z"/>
<path class="st0" d="M766.9,308.4h-63.2V122.7h63.2V308.4z M705.7,306.4h59.2V124.7h-59.2V306.4z"/>
<path class="st0" d="M750.6,131c-5.7,0-11.1-2.1-15.3-6c-8.7,7.9-22,7.9-30.6,0c-8.7,7.9-22,7.9-30.6,0c-8.7,7.9-22,7.9-30.6,0
	c-8.7,7.9-22,7.9-30.6,0c-8.7,7.9-22,7.9-30.6,0c-8.7,7.9-22,7.9-30.6,0c-8.9,8.2-22.7,7.9-31.3-0.7l1.4-1.4
	c8.1,8.1,21.1,8.1,29.2,0l0.7-0.7l0.7,0.7c8.1,8.1,21.1,8.1,29.2,0l0.7-0.7l0.7,0.8c8.1,8.1,21.1,8.1,29.2,0l0.7-0.7l0.7,0.7
	c8.1,8.1,21.1,8.1,29.2,0l0.7-0.7l0.7,0.7c8.1,8.1,21.1,8.1,29.2,0l0.7-0.7l0.7,0.7c8.1,8.1,21.1,8.1,29.2,0l0.7-0.7l0.7,0.7
	c8.1,8.1,21.1,8.1,29.2,0l0.7-0.7l0.7,0.7c8.1,8.1,21.1,8.1,29.2,0l1.4,1.4C762.4,128.7,756.6,131,750.6,131L750.6,131z"/>
<path class="st0" d="M644.4,124.7H520v-1c0-34.4,27.9-62.2,62.2-62.2c34.4,0,62.2,27.9,62.2,62.2L644.4,124.7L644.4,124.7z
	 M522,122.7h120.4c-0.9-33.3-28.5-59.5-61.8-58.7C548.6,64.9,522.8,90.7,522,122.7L522,122.7z"/>
<path class="st0" d="M766.9,124.7H642.4v-1c0-33.2-27-60.2-60.2-60.2v-2h184.7V124.7z M644.4,122.7h120.5V63.5h-167
	C624.9,70.6,643.9,94.8,644.4,122.7z"/>
<g>
	<defs>
		<path id="SVGID_1_" d="M766.9,124.7H642.4v-1c0-33.2-27-60.2-60.2-60.2v-2h184.7V124.7z M644.4,122.7h120.5V63.5h-167
			C624.9,70.6,643.9,94.8,644.4,122.7z"/>
	</defs>
	<clipPath id="SVGID_2_">
		<use xlink:href="#SVGID_1_"  style="overflow:visible;"/>
	</clipPath>
	<g class="st1">
		<path class="st0" d="M582.2,69.1h183.7v2H582.2V69.1z M582.2,76.8h183.7v2H582.2V76.8z M582.2,84.4h183.7v2H582.2V84.4z
			 M582.2,92.1h183.7v2H582.2V92.1z M582.2,99.8h183.7v2H582.2V99.8z M582.2,107.4h183.7v2H582.2V107.4z M582.2,115.1h183.7v2H582.2
			V115.1z M582.2,122.7h183.7v2H582.2V122.7z"/>
	</g>
</g>
<path class="st0" d="M739.9,216.6h-9.2c-2.2,0-4.1-1.8-4.1-4.1V188c0-2.2,1.8-4.1,4.1-4.1h9.2c2.2,0,4.1,1.8,4.1,4.1v24.5
	C743.9,214.7,742.1,216.5,739.9,216.6z M730.7,185.9c-1.1,0-2.1,0.9-2.1,2.1v24.5c0,1.1,0.9,2.1,2.1,2.1h9.2c1.1,0,2.1-0.9,2.1-2.1
	V188c0-1.1-0.9-2.1-2.1-2.1L730.7,185.9L730.7,185.9z M811.8,266.2c-17.5,0-34.3-6.9-46.6-19.3l1.4-1.4c25,25,65.5,25,90.4,0
	c0,0,0,0,0,0l1.4,1.4C846.1,259.3,829.3,266.2,811.8,266.2L811.8,266.2z"/>
<path class="st0" d="M903.5,266.2c-17.5,0-34.2-7-46.5-19.4l1.4-1.4c15.7,15.8,38.6,22.3,60.3,16.9l0.5,1.9
	C914,265.6,908.8,266.2,903.5,266.2L903.5,266.2z"/>
<path class="st0" d="M856.7,246.2h2v61.2h-2V246.2z M383.2,266.2c-17.5,0-34.3-6.9-46.6-19.3l1.4-1.4c25,25,65.5,25,90.4,0
	c0,0,0,0,0,0l1.4,1.4C417.5,259.3,400.7,266.2,383.2,266.2z"/>
<path class="st0" d="M475,266.2c-17.5,0-34.3-6.9-46.6-19.3l1.4-1.4c25,25,65.5,25,90.4,0c0,0,0,0,0,0l1.4,1.4
	C509.3,259.3,492.5,266.2,475,266.2z"/>
<path class="st0" d="M428.1,246.2h2v61.2h-2V246.2z M336.3,246.2h2v61.2h-2V246.2z"/>
<path class="st0" d="M291.4,266.2c-17.5,0-34.3-6.9-46.6-19.3l1.4-1.4c25,25,65.5,25,90.4,0c0,0,0,0,0,0l1.4,1.4
	C325.6,259.3,308.8,266.2,291.4,266.2z"/>
<path class="st0" d="M244.4,246.2h2v61.2h-2V246.2z M919,247.2c-17.5,0-31.6-14.2-31.6-31.6V93.1c0-17.5,14.2-31.6,31.6-31.6v2
	c-16.4,0-29.6,13.3-29.6,29.6v122.4c0,16.4,13.3,29.6,29.6,29.6V247.2z"/>
<path class="st0" d="M918,62.5h2v244.9h-2V62.5z M827.1,247.2c-17.5,0-31.6-14.2-31.6-31.6V93.1c0-17.5,14.2-31.6,31.6-31.6
	s31.6,14.2,31.6,31.6v122.5C858.7,233,844.6,247.1,827.1,247.2L827.1,247.2z M827.1,63.5c-16.3,0-29.6,13.3-29.6,29.6v122.5
	c0,16.4,13.3,29.6,29.6,29.6s29.6-13.3,29.6-29.6V93.1C856.7,76.7,843.5,63.5,827.1,63.5z"/>
<path class="st0" d="M826.1,62.5h2v244.9h-2V62.5z"/>
<path class="st0" d="M765.9,61.5H919v2H765.9V61.5z M888,185.8l1.4-1.4l30.3,30.3l-1.4,1.4L888,185.8z M796,185.8l1.4-1.4l30.3,30.3
	l-1.4,1.4L796,185.8z M826.3,153.6l30.6-30.6l1.4,1.4L827.7,155L826.3,153.6z"/>
<path class="st0" d="M764.9,1.2h2v61.2h-2V1.2z M828.1,40h-32.6V1.2h2V38h28.6V1.2h2V40 M889.3,40h-32.6V1.2h2V38h28.6V1.2h2V40"/>
<path class="st0" d="M796.5,30.9H827v2h-30.5V30.9z M857.6,30.9h30.8v2h-30.8V30.9z M499.1,165.8c-5.8,0-8.7-2.1-11.5-4.2
	s-5.2-3.8-10.3-3.8s-7.6,1.9-10.3,3.8s-5.7,4.2-11.5,4.2s-8.7-2.1-11.5-4.2s-5.2-3.8-10.3-3.8s-7.6,1.9-10.3,3.8s-5.7,4.2-11.5,4.2
	s-8.7-2.1-11.5-4.2s-5.2-3.8-10.3-3.8s-7.6,1.9-10.3,3.8s-5.7,4.2-11.5,4.2s-8.7-2.1-11.5-4.2s-5.2-3.8-10.3-3.8s-7.6,1.9-10.3,3.8
	s-5.7,4.2-11.5,4.2s-8.7-2.1-11.5-4.2s-5.2-3.8-10.3-3.8s-7.6,1.9-10.3,3.8s-5.7,4.2-11.5,4.2s-8.7-2.1-11.5-4.2s-5.2-3.8-10.3-3.8
	s-7.6,1.9-10.3,3.8s-5.7,4.2-11.5,4.2s-8.7-2.1-11.5-4.2s-5.2-3.8-10.3-3.8v-2c5.8,0,8.7,2.1,11.5,4.2s5.2,3.8,10.3,3.8
	s7.6-1.9,10.3-3.8s5.7-4.2,11.5-4.2s8.7,2.1,11.5,4.2s5.2,3.8,10.3,3.8s7.6-1.9,10.3-3.8s5.7-4.2,11.5-4.2s8.7,2.1,11.5,4.2
	s5.2,3.8,10.3,3.8s7.6-1.9,10.3-3.8s5.7-4.2,11.5-4.2s8.7,2.1,11.5,4.2s5.2,3.8,10.3,3.8s7.6-1.9,10.3-3.8s5.7-4.2,11.5-4.2
	s8.7,2.1,11.5,4.2s5.2,3.8,10.3,3.8s7.6-1.9,10.3-3.8s5.7-4.2,11.5-4.2s8.7,2.1,11.5,4.2s5.2,3.8,10.3,3.8s7.6-1.9,10.3-3.8
	s5.7-4.2,11.5-4.2s8.7,2.1,11.5,4.2s5.2,3.8,10.3,3.8s7.6-1.9,10.3-3.8c2.7-2,5.7-4.2,11.5-4.2v2c-5.1,0-7.7,1.9-10.3,3.8
	S504.9,165.8,499.1,165.8z"/>
<path class="st0" d="M499.1,173.3c-5.8,0-8.7-2.1-11.5-4.2s-5.2-3.8-10.3-3.8s-7.6,1.9-10.3,3.8s-5.7,4.2-11.5,4.2
	s-8.7-2.1-11.5-4.2s-5.2-3.8-10.3-3.8s-7.6,1.9-10.3,3.8s-5.7,4.2-11.5,4.2s-8.7-2.1-11.5-4.2s-5.2-3.8-10.3-3.8s-7.6,1.9-10.3,3.8
	s-5.7,4.2-11.5,4.2s-8.7-2.1-11.5-4.2s-5.2-3.8-10.3-3.8s-7.6,1.9-10.3,3.8s-5.7,4.2-11.5,4.2s-8.7-2.1-11.5-4.2s-5.2-3.8-10.3-3.8
	s-7.6,1.9-10.3,3.8s-5.7,4.2-11.5,4.2s-8.7-2.1-11.5-4.2s-5.2-3.8-10.3-3.8s-7.6,1.9-10.3,3.8s-5.7,4.2-11.5,4.2s-8.7-2.1-11.5-4.2
	s-5.2-3.8-10.3-3.8v-2c5.8,0,8.7,2.1,11.5,4.2s5.2,3.8,10.3,3.8s7.6-1.9,10.3-3.8s5.7-4.2,11.5-4.2s8.7,2.1,11.5,4.2
	s5.2,3.8,10.3,3.8s7.6-1.9,10.3-3.8s5.7-4.2,11.5-4.2s8.7,2.1,11.5,4.2s5.2,3.8,10.3,3.8s7.6-1.9,10.3-3.8s5.7-4.2,11.5-4.2
	s8.7,2.1,11.5,4.2s5.2,3.8,10.3,3.8s7.6-1.9,10.3-3.8s5.7-4.2,11.5-4.2s8.7,2.1,11.5,4.2s5.2,3.8,10.3,3.8s7.6-1.9,10.3-3.8
	s5.7-4.2,11.5-4.2s8.7,2.1,11.5,4.2s5.2,3.8,10.3,3.8s7.6-1.9,10.3-3.8s5.7-4.2,11.5-4.2s8.7,2.1,11.5,4.2s5.2,3.8,10.3,3.8
	s7.6-1.9,10.3-3.8c2.7-2,5.7-4.2,11.5-4.2v2c-5.1,0-7.7,1.9-10.3,3.8S504.9,173.3,499.1,173.3z"/>
<path class="st0" d="M499.1,180.9c-5.8,0-8.7-2.1-11.5-4.2s-5.2-3.8-10.3-3.8s-7.6,1.9-10.3,3.8s-5.7,4.2-11.5,4.2
	s-8.7-2.1-11.5-4.2s-5.2-3.8-10.3-3.8s-7.6,1.9-10.3,3.8s-5.7,4.2-11.5,4.2s-8.7-2.1-11.5-4.2s-5.2-3.8-10.3-3.8s-7.6,1.9-10.3,3.8
	s-5.7,4.2-11.5,4.2s-8.7-2.1-11.5-4.2s-5.2-3.8-10.3-3.8s-7.6,1.9-10.3,3.8s-5.7,4.2-11.5,4.2s-8.7-2.1-11.5-4.2s-5.2-3.8-10.3-3.8
	s-7.6,1.9-10.3,3.8s-5.7,4.2-11.5,4.2s-8.7-2.1-11.5-4.2s-5.2-3.8-10.3-3.8s-7.6,1.9-10.3,3.8s-5.7,4.2-11.5,4.2s-8.7-2.1-11.5-4.2
	s-5.2-3.8-10.3-3.8v-2c5.8,0,8.7,2.1,11.5,4.2s5.2,3.8,10.3,3.8s7.6-1.9,10.3-3.8s5.7-4.2,11.5-4.2s8.7,2.1,11.5,4.2
	s5.2,3.8,10.3,3.8s7.6-1.9,10.3-3.8s5.7-4.2,11.5-4.2s8.7,2.1,11.5,4.2s5.2,3.8,10.3,3.8s7.6-1.9,10.3-3.8s5.7-4.2,11.5-4.2
	s8.7,2.1,11.5,4.2s5.2,3.8,10.3,3.8s7.6-1.9,10.3-3.8s5.7-4.2,11.5-4.2s8.7,2.1,11.5,4.2s5.2,3.8,10.3,3.8s7.6-1.9,10.3-3.9
	s5.7-4.2,11.5-4.2s8.7,2.1,11.5,4.2s5.2,3.8,10.3,3.8s7.6-1.9,10.3-3.8s5.7-4.2,11.5-4.2s8.7,2.2,11.5,4.2s5.2,3.8,10.3,3.8
	s7.6-1.9,10.3-3.8c2.7-2,5.7-4.2,11.5-4.2v2c-5.1,0-7.7,1.9-10.3,3.8S504.9,180.8,499.1,180.9L499.1,180.9z"/>
<path class="st0" d="M499.1,188.4c-5.8,0-8.7-2.1-11.5-4.2s-5.2-3.8-10.3-3.8s-7.6,1.9-10.3,3.8s-5.7,4.2-11.5,4.2
	s-8.7-2.1-11.5-4.2s-5.2-3.8-10.3-3.8s-7.6,1.9-10.3,3.8s-5.7,4.2-11.5,4.2s-8.7-2.1-11.5-4.2s-5.2-3.8-10.3-3.8s-7.6,1.9-10.3,3.8
	s-5.7,4.2-11.5,4.2s-8.7-2.1-11.5-4.2s-5.2-3.8-10.3-3.8s-7.6,1.9-10.3,3.8s-5.7,4.2-11.5,4.2s-8.7-2.1-11.5-4.2s-5.2-3.8-10.3-3.8
	s-7.6,1.9-10.3,3.8s-5.7,4.2-11.5,4.2s-8.7-2.1-11.5-4.2s-5.2-3.8-10.3-3.8s-7.6,1.9-10.3,3.8s-5.7,4.2-11.5,4.2s-8.7-2.1-11.5-4.2
	s-5.2-3.8-10.3-3.8v-2c5.8,0,8.7,2.1,11.5,4.2s5.2,3.8,10.3,3.8s7.6-1.9,10.3-3.8s5.7-4.2,11.5-4.2s8.7,2.1,11.5,4.2
	s5.2,3.8,10.3,3.8s7.6-1.9,10.3-3.8s5.7-4.2,11.5-4.2s8.7,2.1,11.5,4.2s5.2,3.8,10.3,3.8s7.6-1.9,10.3-3.8s5.7-4.2,11.5-4.2
	s8.7,2.1,11.5,4.2s5.2,3.8,10.3,3.8s7.6-1.9,10.3-3.8s5.7-4.2,11.5-4.2s8.7,2.1,11.5,4.2s5.2,3.8,10.3,3.8s7.6-1.9,10.3-3.8
	s5.7-4.2,11.5-4.2s8.7,2.1,11.5,4.2s5.2,3.8,10.3,3.8s7.6-1.9,10.3-3.8s5.7-4.2,11.5-4.2s8.7,2.1,11.5,4.2s5.2,3.8,10.3,3.8
	s7.6-1.9,10.3-3.8c2.7-2,5.7-4.2,11.5-4.2v2c-5.1,0-7.7,1.9-10.3,3.8S504.9,188.4,499.1,188.4z"/>
<path class="st0" d="M499.1,195.9c-5.8,0-8.7-2.1-11.5-4.2s-5.2-3.8-10.3-3.8s-7.6,1.9-10.3,3.8s-5.7,4.2-11.5,4.2
	s-8.7-2.1-11.5-4.2s-5.2-3.8-10.3-3.8s-7.6,1.9-10.3,3.8s-5.7,4.2-11.5,4.2s-8.7-2.1-11.5-4.2s-5.2-3.8-10.3-3.8s-7.6,1.9-10.3,3.8
	s-5.7,4.2-11.5,4.2s-8.7-2.1-11.5-4.2s-5.2-3.8-10.3-3.8s-7.6,1.9-10.3,3.8s-5.7,4.2-11.5,4.2s-8.7-2.1-11.5-4.2s-5.2-3.8-10.3-3.8
	s-7.6,1.9-10.3,3.8s-5.7,4.2-11.5,4.2s-8.7-2.1-11.5-4.2s-5.2-3.8-10.3-3.8s-7.6,1.9-10.3,3.8s-5.7,4.2-11.5,4.2s-8.7-2.1-11.5-4.2
	s-5.2-3.8-10.3-3.8v-2c5.8,0,8.7,2.1,11.5,4.2s5.2,3.8,10.3,3.8s7.6-1.9,10.3-3.8s5.7-4.2,11.5-4.2s8.7,2.1,11.5,4.2
	s5.2,3.8,10.3,3.8s7.6-1.9,10.3-3.8s5.7-4.2,11.5-4.2s8.7,2.1,11.5,4.2s5.2,3.8,10.3,3.8s7.6-1.9,10.3-3.8s5.7-4.2,11.5-4.2
	s8.7,2.1,11.5,4.2s5.2,3.8,10.3,3.8s7.6-1.9,10.3-3.8s5.7-4.2,11.5-4.2s8.7,2.1,11.5,4.2s5.2,3.8,10.3,3.8s7.6-1.9,10.3-3.8
	s5.7-4.2,11.5-4.2s8.7,2.1,11.5,4.2s5.2,3.8,10.3,3.8s7.6-1.9,10.3-3.8s5.7-4.2,11.5-4.2s8.7,2.1,11.5,4.2s5.2,3.8,10.3,3.8
	s7.6-1.9,10.3-3.8c2.7-2,5.7-4.2,11.5-4.2v2c-5.1,0-7.7,1.9-10.3,3.8S504.9,195.9,499.1,195.9z"/>
<path class="st0" d="M499.1,203.5c-5.8,0-8.7-2.1-11.5-4.2s-5.2-3.8-10.3-3.8s-7.6,1.9-10.3,3.8s-5.7,4.2-11.5,4.2
	s-8.7-2.1-11.5-4.2s-5.2-3.8-10.3-3.8s-7.6,1.9-10.3,3.8s-5.7,4.2-11.5,4.2s-8.7-2.1-11.5-4.2s-5.2-3.8-10.3-3.8s-7.6,1.9-10.3,3.8
	s-5.7,4.2-11.5,4.2s-8.7-2.1-11.5-4.2s-5.2-3.8-10.3-3.8s-7.6,1.9-10.3,3.8s-5.7,4.2-11.5,4.2s-8.7-2.1-11.5-4.2s-5.2-3.8-10.3-3.8
	s-7.6,1.9-10.3,3.8s-5.7,4.2-11.5,4.2s-8.7-2.1-11.5-4.2s-5.2-3.8-10.3-3.8s-7.6,1.9-10.3,3.8s-5.7,4.2-11.5,4.2s-8.7-2.1-11.5-4.2
	s-5.2-3.8-10.3-3.8v-2c5.8,0,8.7,2.1,11.5,4.2s5.2,3.8,10.3,3.8s7.6-1.9,10.3-3.8s5.7-4.2,11.5-4.2s8.7,2.1,11.5,4.2
	s5.2,3.8,10.3,3.8s7.6-1.9,10.3-3.8s5.7-4.2,11.5-4.2s8.7,2.1,11.5,4.2s5.2,3.8,10.3,3.8s7.6-1.9,10.3-3.8s5.7-4.2,11.5-4.2
	s8.7,2.1,11.5,4.2s5.2,3.8,10.3,3.8s7.6-1.9,10.3-3.8s5.7-4.2,11.5-4.2s8.7,2.1,11.5,4.2s5.2,3.8,10.3,3.8s7.6-1.9,10.3-3.8
	s5.7-4.2,11.5-4.2s8.7,2.1,11.5,4.2s5.2,3.8,10.3,3.8s7.6-1.9,10.3-3.8s5.7-4.2,11.5-4.2s8.7,2.1,11.5,4.2s5.2,3.8,10.3,3.8
	s7.6-1.9,10.3-3.8c2.7-2,5.7-4.2,11.5-4.2v2c-5.1,0-7.7,1.9-10.3,3.8S504.9,203.5,499.1,203.5z"/>
<path class="st0" d="M499.1,211c-5.8,0-8.7-2.1-11.5-4.2s-5.2-3.8-10.3-3.8s-7.6,1.9-10.3,3.8s-5.7,4.2-11.5,4.2s-8.7-2.1-11.5-4.2
	s-5.2-3.8-10.3-3.8s-7.6,1.9-10.3,3.8s-5.7,4.2-11.5,4.2s-8.7-2.1-11.5-4.2s-5.2-3.8-10.4-3.8s-7.6,1.9-10.3,3.8s-5.7,4.2-11.5,4.2
	s-8.7-2.1-11.5-4.2s-5.2-3.8-10.3-3.8s-7.6,1.9-10.3,3.8s-5.7,4.2-11.5,4.2s-8.7-2.1-11.5-4.2s-5.2-3.8-10.3-3.8s-7.6,1.9-10.3,3.8
	s-5.7,4.2-11.5,4.2s-8.7-2.1-11.5-4.2s-5.2-3.8-10.3-3.8s-7.6,1.9-10.3,3.8s-5.7,4.2-11.5,4.2s-8.7-2.1-11.5-4.2s-5.2-3.8-10.3-3.8
	v-2c5.8,0,8.7,2.1,11.5,4.2s5.2,3.8,10.3,3.8s7.6-1.9,10.3-3.8s5.7-4.2,11.5-4.2s8.7,2.1,11.5,4.2s5.2,3.8,10.3,3.8
	s7.6-1.9,10.3-3.8s5.7-4.2,11.5-4.2s8.7,2.1,11.5,4.2s5.2,3.8,10.3,3.8s7.6-1.9,10.3-3.8s5.7-4.2,11.5-4.2s8.7,2.1,11.5,4.2
	s5.2,3.8,10.3,3.8s7.6-1.9,10.3-3.8s5.7-4.2,11.5-4.2s8.7,2.1,11.5,4.2s5.2,3.8,10.3,3.8s7.6-1.9,10.3-3.8s5.7-4.2,11.5-4.2
	s8.7,2.1,11.5,4.2s5.2,3.8,10.3,3.8s7.6-1.9,10.3-3.8s5.7-4.2,11.5-4.2s8.7,2.1,11.5,4.2s5.2,3.8,10.4,3.8s7.6-1.9,10.3-3.8
	c2.7-2,5.7-4.2,11.5-4.2v2c-5.1,0-7.7,1.9-10.3,3.8S504.9,211,499.1,211L499.1,211z M0.5,0.2H919v2H0.5V0.2z M164,31.9h2v76.5h-2
	V31.9z M173.7,31.9h2v76.5h-2V31.9z M183.4,31.9h2v76.5h-2V31.9z M193,31.9h2v76.5h-2V31.9z M202.7,31.9h2v76.5h-2V31.9z M0.3,306.5
	H919v1.9H0.3V306.5z M214.8,245.2h30.6v2h-30.6V245.2z"/>
</svg>
